D:\Self Working\ArabicLexicon\ArabicLexicon.Web\app\app.component.js
D:\Self Working\ArabicLexicon\ArabicLexicon.Web\app\app.component.js.map
D:\Self Working\ArabicLexicon\ArabicLexicon.Web\app\app.routing.js
D:\Self Working\ArabicLexicon\ArabicLexicon.Web\app\app.routing.js.map
D:\Self Working\ArabicLexicon\ArabicLexicon.Web\app\app.module.js
D:\Self Working\ArabicLexicon\ArabicLexicon.Web\app\app.module.js.map
D:\Self Working\ArabicLexicon\ArabicLexicon.Web\app\main.js
D:\Self Working\ArabicLexicon\ArabicLexicon.Web\app\main.js.map
D:\Self Working\ArabicLexicon\ArabicLexicon.Web\app\app.component.js
D:\Self Working\ArabicLexicon\ArabicLexicon.Web\app\app.component.js.map
D:\Self Working\ArabicLexicon\ArabicLexicon.Web\app\components\search.component.js
D:\Self Working\ArabicLexicon\ArabicLexicon.Web\app\components\search.component.js.map
D:\Self Working\ArabicLexicon\ArabicLexicon.Web\app\app.routing.js
D:\Self Working\ArabicLexicon\ArabicLexicon.Web\app\app.routing.js.map
D:\Self Working\ArabicLexicon\ArabicLexicon.Web\app\app.module.js
D:\Self Working\ArabicLexicon\ArabicLexicon.Web\app\app.module.js.map
D:\Self Working\ArabicLexicon\ArabicLexicon.Web\app\main.js
D:\Self Working\ArabicLexicon\ArabicLexicon.Web\app\main.js.map
D:\Self Working\ArabicLexicon\ArabicLexicon.Web\app\app.component.js
D:\Self Working\ArabicLexicon\ArabicLexicon.Web\app\app.component.js.map
D:\Self Working\ArabicLexicon\ArabicLexicon.Web\app\components\search.component.js
D:\Self Working\ArabicLexicon\ArabicLexicon.Web\app\components\search.component.js.map
D:\Self Working\ArabicLexicon\ArabicLexicon.Web\app\app.routing.js
D:\Self Working\ArabicLexicon\ArabicLexicon.Web\app\app.routing.js.map
D:\Self Working\ArabicLexicon\ArabicLexicon.Web\app\app.module.js
D:\Self Working\ArabicLexicon\ArabicLexicon.Web\app\app.module.js.map
D:\Self Working\ArabicLexicon\ArabicLexicon.Web\app\main.js
D:\Self Working\ArabicLexicon\ArabicLexicon.Web\app\main.js.map
D:\Self Working\ArabicLexicon\ArabicLexicon.Web\app\app.component.js
D:\Self Working\ArabicLexicon\ArabicLexicon.Web\app\app.component.js.map
D:\Self Working\ArabicLexicon\ArabicLexicon.Web\app\components\search.component.js
D:\Self Working\ArabicLexicon\ArabicLexicon.Web\app\components\search.component.js.map
D:\Self Working\ArabicLexicon\ArabicLexicon.Web\app\app.routing.js
D:\Self Working\ArabicLexicon\ArabicLexicon.Web\app\app.routing.js.map
D:\Self Working\ArabicLexicon\ArabicLexicon.Web\app\app.module.js
D:\Self Working\ArabicLexicon\ArabicLexicon.Web\app\app.module.js.map
D:\Self Working\ArabicLexicon\ArabicLexicon.Web\app\main.js
D:\Self Working\ArabicLexicon\ArabicLexicon.Web\app\main.js.map
D:\Self Working\ArabicLexicon\ArabicLexicon.Web\app\app.component.js
D:\Self Working\ArabicLexicon\ArabicLexicon.Web\app\app.component.js.map
D:\Self Working\ArabicLexicon\ArabicLexicon.Web\app\components\search.component.js
D:\Self Working\ArabicLexicon\ArabicLexicon.Web\app\components\search.component.js.map
D:\Self Working\ArabicLexicon\ArabicLexicon.Web\app\app.routing.js
D:\Self Working\ArabicLexicon\ArabicLexicon.Web\app\app.routing.js.map
D:\Self Working\ArabicLexicon\ArabicLexicon.Web\app\app.module.js
D:\Self Working\ArabicLexicon\ArabicLexicon.Web\app\app.module.js.map
D:\Self Working\ArabicLexicon\ArabicLexicon.Web\app\main.js
D:\Self Working\ArabicLexicon\ArabicLexicon.Web\app\main.js.map
D:\Self Working\ArabicLexicon\ArabicLexicon.Web\app\app.component.js
D:\Self Working\ArabicLexicon\ArabicLexicon.Web\app\app.component.js.map
D:\Self Working\ArabicLexicon\ArabicLexicon.Web\app\components\search.component.js
D:\Self Working\ArabicLexicon\ArabicLexicon.Web\app\components\search.component.js.map
D:\Self Working\ArabicLexicon\ArabicLexicon.Web\app\app.routing.js
D:\Self Working\ArabicLexicon\ArabicLexicon.Web\app\app.routing.js.map
D:\Self Working\ArabicLexicon\ArabicLexicon.Web\app\app.module.js
D:\Self Working\ArabicLexicon\ArabicLexicon.Web\app\app.module.js.map
D:\Self Working\ArabicLexicon\ArabicLexicon.Web\app\main.js
D:\Self Working\ArabicLexicon\ArabicLexicon.Web\app\main.js.map
D:\Self Working\ArabicLexicon\ArabicLexicon.Web\app\app.component.js
D:\Self Working\ArabicLexicon\ArabicLexicon.Web\app\app.component.js.map
D:\Self Working\ArabicLexicon\ArabicLexicon.Web\app\components\search.component.js
D:\Self Working\ArabicLexicon\ArabicLexicon.Web\app\components\search.component.js.map
D:\Self Working\ArabicLexicon\ArabicLexicon.Web\app\app.routing.js
D:\Self Working\ArabicLexicon\ArabicLexicon.Web\app\app.routing.js.map
D:\Self Working\ArabicLexicon\ArabicLexicon.Web\app\app.module.js
D:\Self Working\ArabicLexicon\ArabicLexicon.Web\app\app.module.js.map
D:\Self Working\ArabicLexicon\ArabicLexicon.Web\app\main.js
D:\Self Working\ArabicLexicon\ArabicLexicon.Web\app\main.js.map
D:\Self Working\ArabicLexicon\ArabicLexicon.Web\app\app.component.js
D:\Self Working\ArabicLexicon\ArabicLexicon.Web\app\app.component.js.map
D:\Self Working\ArabicLexicon\ArabicLexicon.Web\app\components\search.component.js
D:\Self Working\ArabicLexicon\ArabicLexicon.Web\app\components\search.component.js.map
D:\Self Working\ArabicLexicon\ArabicLexicon.Web\app\app.routing.js
D:\Self Working\ArabicLexicon\ArabicLexicon.Web\app\app.routing.js.map
D:\Self Working\ArabicLexicon\ArabicLexicon.Web\app\app.module.js
D:\Self Working\ArabicLexicon\ArabicLexicon.Web\app\app.module.js.map
D:\Self Working\ArabicLexicon\ArabicLexicon.Web\app\main.js
D:\Self Working\ArabicLexicon\ArabicLexicon.Web\app\main.js.map
D:\Self Working\ArabicLexicon\ArabicLexicon.Web\app\app.component.js
D:\Self Working\ArabicLexicon\ArabicLexicon.Web\app\app.component.js.map
D:\Self Working\ArabicLexicon\ArabicLexicon.Web\app\components\search.component.js
D:\Self Working\ArabicLexicon\ArabicLexicon.Web\app\components\search.component.js.map
D:\Self Working\ArabicLexicon\ArabicLexicon.Web\app\app.routing.js
D:\Self Working\ArabicLexicon\ArabicLexicon.Web\app\app.routing.js.map
D:\Self Working\ArabicLexicon\ArabicLexicon.Web\app\app.module.js
D:\Self Working\ArabicLexicon\ArabicLexicon.Web\app\app.module.js.map
D:\Self Working\ArabicLexicon\ArabicLexicon.Web\app\main.js
D:\Self Working\ArabicLexicon\ArabicLexicon.Web\app\main.js.map
D:\Self Working\ArabicLexicon\ArabicLexicon.Web\app\app.component.js
D:\Self Working\ArabicLexicon\ArabicLexicon.Web\app\app.component.js.map
D:\Self Working\ArabicLexicon\ArabicLexicon.Web\app\components\search.component.js
D:\Self Working\ArabicLexicon\ArabicLexicon.Web\app\components\search.component.js.map
D:\Self Working\ArabicLexicon\ArabicLexicon.Web\app\app.routing.js
D:\Self Working\ArabicLexicon\ArabicLexicon.Web\app\app.routing.js.map
D:\Self Working\ArabicLexicon\ArabicLexicon.Web\app\app.module.js
D:\Self Working\ArabicLexicon\ArabicLexicon.Web\app\app.module.js.map
D:\Self Working\ArabicLexicon\ArabicLexicon.Web\app\main.js
D:\Self Working\ArabicLexicon\ArabicLexicon.Web\app\main.js.map
D:\Self Working\ArabicLexicon\ArabicLexicon.Web\app\app.component.js
D:\Self Working\ArabicLexicon\ArabicLexicon.Web\app\app.component.js.map
D:\Self Working\ArabicLexicon\ArabicLexicon.Web\app\components\search.component.js
D:\Self Working\ArabicLexicon\ArabicLexicon.Web\app\components\search.component.js.map
D:\Self Working\ArabicLexicon\ArabicLexicon.Web\app\app.routing.js
D:\Self Working\ArabicLexicon\ArabicLexicon.Web\app\app.routing.js.map
D:\Self Working\ArabicLexicon\ArabicLexicon.Web\app\app.module.js
D:\Self Working\ArabicLexicon\ArabicLexicon.Web\app\app.module.js.map
D:\Self Working\ArabicLexicon\ArabicLexicon.Web\app\main.js
D:\Self Working\ArabicLexicon\ArabicLexicon.Web\app\main.js.map
D:\Self Working\ArabicLexicon\ArabicLexicon.Web\app\app.component.js
D:\Self Working\ArabicLexicon\ArabicLexicon.Web\app\app.component.js.map
D:\Self Working\ArabicLexicon\ArabicLexicon.Web\app\components\search.component.js
D:\Self Working\ArabicLexicon\ArabicLexicon.Web\app\components\search.component.js.map
D:\Self Working\ArabicLexicon\ArabicLexicon.Web\app\app.routing.js
D:\Self Working\ArabicLexicon\ArabicLexicon.Web\app\app.routing.js.map
D:\Self Working\ArabicLexicon\ArabicLexicon.Web\app\app.module.js
D:\Self Working\ArabicLexicon\ArabicLexicon.Web\app\app.module.js.map
D:\Self Working\ArabicLexicon\ArabicLexicon.Web\app\main.js
D:\Self Working\ArabicLexicon\ArabicLexicon.Web\app\main.js.map
D:\Self Working\ArabicLexicon\ArabicLexicon.Web\app\app.component.js
D:\Self Working\ArabicLexicon\ArabicLexicon.Web\app\app.component.js.map
D:\Self Working\ArabicLexicon\ArabicLexicon.Web\app\components\search.component.js
D:\Self Working\ArabicLexicon\ArabicLexicon.Web\app\components\search.component.js.map
D:\Self Working\ArabicLexicon\ArabicLexicon.Web\app\app.routing.js
D:\Self Working\ArabicLexicon\ArabicLexicon.Web\app\app.routing.js.map
D:\Self Working\ArabicLexicon\ArabicLexicon.Web\app\app.module.js
D:\Self Working\ArabicLexicon\ArabicLexicon.Web\app\app.module.js.map
D:\Self Working\ArabicLexicon\ArabicLexicon.Web\app\main.js
D:\Self Working\ArabicLexicon\ArabicLexicon.Web\app\main.js.map
D:\Self Working\ArabicLexicon\ArabicLexicon.Web\app\app.component.js
D:\Self Working\ArabicLexicon\ArabicLexicon.Web\app\app.component.js.map
D:\Self Working\ArabicLexicon\ArabicLexicon.Web\app\components\search.component.js
D:\Self Working\ArabicLexicon\ArabicLexicon.Web\app\components\search.component.js.map
D:\Self Working\ArabicLexicon\ArabicLexicon.Web\app\app.routing.js
D:\Self Working\ArabicLexicon\ArabicLexicon.Web\app\app.routing.js.map
D:\Self Working\ArabicLexicon\ArabicLexicon.Web\app\app.module.js
D:\Self Working\ArabicLexicon\ArabicLexicon.Web\app\app.module.js.map
D:\Self Working\ArabicLexicon\ArabicLexicon.Web\app\main.js
D:\Self Working\ArabicLexicon\ArabicLexicon.Web\app\main.js.map
D:\Self Working\ArabicLexicon\ArabicLexicon.Web\app\app.component.js
D:\Self Working\ArabicLexicon\ArabicLexicon.Web\app\app.component.js.map
D:\Self Working\ArabicLexicon\ArabicLexicon.Web\app\components\search.component.js
D:\Self Working\ArabicLexicon\ArabicLexicon.Web\app\components\search.component.js.map
D:\Self Working\ArabicLexicon\ArabicLexicon.Web\app\app.routing.js
D:\Self Working\ArabicLexicon\ArabicLexicon.Web\app\app.routing.js.map
D:\Self Working\ArabicLexicon\ArabicLexicon.Web\app\app.module.js
D:\Self Working\ArabicLexicon\ArabicLexicon.Web\app\app.module.js.map
D:\Self Working\ArabicLexicon\ArabicLexicon.Web\app\main.js
D:\Self Working\ArabicLexicon\ArabicLexicon.Web\app\main.js.map
D:\Self Working\ArabicLexicon\ArabicLexicon.Web\app\app.component.js
D:\Self Working\ArabicLexicon\ArabicLexicon.Web\app\app.component.js.map
D:\Self Working\ArabicLexicon\ArabicLexicon.Web\app\components\search.component.js
D:\Self Working\ArabicLexicon\ArabicLexicon.Web\app\components\search.component.js.map
D:\Self Working\ArabicLexicon\ArabicLexicon.Web\app\app.routing.js
D:\Self Working\ArabicLexicon\ArabicLexicon.Web\app\app.routing.js.map
D:\Self Working\ArabicLexicon\ArabicLexicon.Web\app\app.module.js
D:\Self Working\ArabicLexicon\ArabicLexicon.Web\app\app.module.js.map
D:\Self Working\ArabicLexicon\ArabicLexicon.Web\app\main.js
D:\Self Working\ArabicLexicon\ArabicLexicon.Web\app\main.js.map
D:\Self Working\ArabicLexiconBackup\ArabicLexiconWithAngular4\ArabicLexicon\ArabicLexicon.Web\app\app.component.js
D:\Self Working\ArabicLexiconBackup\ArabicLexiconWithAngular4\ArabicLexicon\ArabicLexicon.Web\app\app.component.js.map
D:\Self Working\ArabicLexiconBackup\ArabicLexiconWithAngular4\ArabicLexicon\ArabicLexicon.Web\app\components\search.component.js
D:\Self Working\ArabicLexiconBackup\ArabicLexiconWithAngular4\ArabicLexicon\ArabicLexicon.Web\app\components\search.component.js.map
D:\Self Working\ArabicLexiconBackup\ArabicLexiconWithAngular4\ArabicLexicon\ArabicLexicon.Web\app\app.routing.js
D:\Self Working\ArabicLexiconBackup\ArabicLexiconWithAngular4\ArabicLexicon\ArabicLexicon.Web\app\app.routing.js.map
D:\Self Working\ArabicLexiconBackup\ArabicLexiconWithAngular4\ArabicLexicon\ArabicLexicon.Web\app\app.module.js
D:\Self Working\ArabicLexiconBackup\ArabicLexiconWithAngular4\ArabicLexicon\ArabicLexicon.Web\app\app.module.js.map
D:\Self Working\ArabicLexiconBackup\ArabicLexiconWithAngular4\ArabicLexicon\ArabicLexicon.Web\app\main.js
D:\Self Working\ArabicLexiconBackup\ArabicLexiconWithAngular4\ArabicLexicon\ArabicLexicon.Web\app\main.js.map
D:\Self Working\ArabicLexiconBackup\ArabicLexiconWithAngular4\ArabicLexicon\ArabicLexicon.Web\app\app.component.js
D:\Self Working\ArabicLexiconBackup\ArabicLexiconWithAngular4\ArabicLexicon\ArabicLexicon.Web\app\app.component.js.map
D:\Self Working\ArabicLexiconBackup\ArabicLexiconWithAngular4\ArabicLexicon\ArabicLexicon.Web\app\services\stack-overflow.service.js
D:\Self Working\ArabicLexiconBackup\ArabicLexiconWithAngular4\ArabicLexicon\ArabicLexicon.Web\app\services\stack-overflow.service.js.map
D:\Self Working\ArabicLexiconBackup\ArabicLexiconWithAngular4\ArabicLexicon\ArabicLexicon.Web\app\components\stack-overflow.component.js
D:\Self Working\ArabicLexiconBackup\ArabicLexiconWithAngular4\ArabicLexicon\ArabicLexicon.Web\app\components\stack-overflow.component.js.map
D:\Self Working\ArabicLexiconBackup\ArabicLexiconWithAngular4\ArabicLexicon\ArabicLexicon.Web\app\app.routing.js
D:\Self Working\ArabicLexiconBackup\ArabicLexiconWithAngular4\ArabicLexicon\ArabicLexicon.Web\app\app.routing.js.map
D:\Self Working\ArabicLexiconBackup\ArabicLexiconWithAngular4\ArabicLexicon\ArabicLexicon.Web\app\app.module.js
D:\Self Working\ArabicLexiconBackup\ArabicLexiconWithAngular4\ArabicLexicon\ArabicLexicon.Web\app\app.module.js.map
D:\Self Working\ArabicLexiconBackup\ArabicLexiconWithAngular4\ArabicLexicon\ArabicLexicon.Web\app\main.js
D:\Self Working\ArabicLexiconBackup\ArabicLexiconWithAngular4\ArabicLexicon\ArabicLexicon.Web\app\main.js.map
D:\Self Working\ArabicLexiconBackup\ArabicLexiconWithAngular4\ArabicLexicon\ArabicLexicon.Web\app\app.component.js
D:\Self Working\ArabicLexiconBackup\ArabicLexiconWithAngular4\ArabicLexicon\ArabicLexicon.Web\app\app.component.js.map
D:\Self Working\ArabicLexiconBackup\ArabicLexiconWithAngular4\ArabicLexicon\ArabicLexicon.Web\app\services\stack-overflow.service.js
D:\Self Working\ArabicLexiconBackup\ArabicLexiconWithAngular4\ArabicLexicon\ArabicLexicon.Web\app\services\stack-overflow.service.js.map
D:\Self Working\ArabicLexiconBackup\ArabicLexiconWithAngular4\ArabicLexicon\ArabicLexicon.Web\app\components\stack-overflow.component.js
D:\Self Working\ArabicLexiconBackup\ArabicLexiconWithAngular4\ArabicLexicon\ArabicLexicon.Web\app\components\stack-overflow.component.js.map
D:\Self Working\ArabicLexiconBackup\ArabicLexiconWithAngular4\ArabicLexicon\ArabicLexicon.Web\app\app.routing.js
D:\Self Working\ArabicLexiconBackup\ArabicLexiconWithAngular4\ArabicLexicon\ArabicLexicon.Web\app\app.routing.js.map
D:\Self Working\ArabicLexiconBackup\ArabicLexiconWithAngular4\ArabicLexicon\ArabicLexicon.Web\app\app.module.js
D:\Self Working\ArabicLexiconBackup\ArabicLexiconWithAngular4\ArabicLexicon\ArabicLexicon.Web\app\app.module.js.map
D:\Self Working\ArabicLexiconBackup\ArabicLexiconWithAngular4\ArabicLexicon\ArabicLexicon.Web\app\main.js
D:\Self Working\ArabicLexiconBackup\ArabicLexiconWithAngular4\ArabicLexicon\ArabicLexicon.Web\app\main.js.map
D:\Self Working\ArabicLexiconBackup\ArabicLexiconWithAngular4\ArabicLexicon\ArabicLexicon.Web\app\app.component.js
D:\Self Working\ArabicLexiconBackup\ArabicLexiconWithAngular4\ArabicLexicon\ArabicLexicon.Web\app\app.component.js.map
D:\Self Working\ArabicLexiconBackup\ArabicLexiconWithAngular4\ArabicLexicon\ArabicLexicon.Web\app\services\stack-overflow.service.js
D:\Self Working\ArabicLexiconBackup\ArabicLexiconWithAngular4\ArabicLexicon\ArabicLexicon.Web\app\services\stack-overflow.service.js.map
D:\Self Working\ArabicLexiconBackup\ArabicLexiconWithAngular4\ArabicLexicon\ArabicLexicon.Web\app\components\stack-overflow.component.js
D:\Self Working\ArabicLexiconBackup\ArabicLexiconWithAngular4\ArabicLexicon\ArabicLexicon.Web\app\components\stack-overflow.component.js.map
D:\Self Working\ArabicLexiconBackup\ArabicLexiconWithAngular4\ArabicLexicon\ArabicLexicon.Web\app\app.routing.js
D:\Self Working\ArabicLexiconBackup\ArabicLexiconWithAngular4\ArabicLexicon\ArabicLexicon.Web\app\app.routing.js.map
D:\Self Working\ArabicLexiconBackup\ArabicLexiconWithAngular4\ArabicLexicon\ArabicLexicon.Web\app\app.module.js
D:\Self Working\ArabicLexiconBackup\ArabicLexiconWithAngular4\ArabicLexicon\ArabicLexicon.Web\app\app.module.js.map
D:\Self Working\ArabicLexiconBackup\ArabicLexiconWithAngular4\ArabicLexicon\ArabicLexicon.Web\app\main.js
D:\Self Working\ArabicLexiconBackup\ArabicLexiconWithAngular4\ArabicLexicon\ArabicLexicon.Web\app\main.js.map
D:\Self Working\ArabicLexiconBackup\ArabicLexiconWithAngular4\ArabicLexicon\ArabicLexicon.Web\app\app.component.js
D:\Self Working\ArabicLexiconBackup\ArabicLexiconWithAngular4\ArabicLexicon\ArabicLexicon.Web\app\app.component.js.map
D:\Self Working\ArabicLexiconBackup\ArabicLexiconWithAngular4\ArabicLexicon\ArabicLexicon.Web\app\services\stack-overflow.service.js
D:\Self Working\ArabicLexiconBackup\ArabicLexiconWithAngular4\ArabicLexicon\ArabicLexicon.Web\app\services\stack-overflow.service.js.map
D:\Self Working\ArabicLexiconBackup\ArabicLexiconWithAngular4\ArabicLexicon\ArabicLexicon.Web\app\components\stack-overflow.component.js
D:\Self Working\ArabicLexiconBackup\ArabicLexiconWithAngular4\ArabicLexicon\ArabicLexicon.Web\app\components\stack-overflow.component.js.map
D:\Self Working\ArabicLexiconBackup\ArabicLexiconWithAngular4\ArabicLexicon\ArabicLexicon.Web\app\app.routing.js
D:\Self Working\ArabicLexiconBackup\ArabicLexiconWithAngular4\ArabicLexicon\ArabicLexicon.Web\app\app.routing.js.map
D:\Self Working\ArabicLexiconBackup\ArabicLexiconWithAngular4\ArabicLexicon\ArabicLexicon.Web\app\app.module.js
D:\Self Working\ArabicLexiconBackup\ArabicLexiconWithAngular4\ArabicLexicon\ArabicLexicon.Web\app\app.module.js.map
D:\Self Working\ArabicLexiconBackup\ArabicLexiconWithAngular4\ArabicLexicon\ArabicLexicon.Web\app\main.js
D:\Self Working\ArabicLexiconBackup\ArabicLexiconWithAngular4\ArabicLexicon\ArabicLexicon.Web\app\main.js.map
D:\Self Working\ArabicLexiconBackup\ArabicLexiconWithAngular4\ArabicLexicon\ArabicLexicon.Web\app\app.component.js
D:\Self Working\ArabicLexiconBackup\ArabicLexiconWithAngular4\ArabicLexicon\ArabicLexicon.Web\app\app.component.js.map
D:\Self Working\ArabicLexiconBackup\ArabicLexiconWithAngular4\ArabicLexicon\ArabicLexicon.Web\app\services\stack-overflow.service.js
D:\Self Working\ArabicLexiconBackup\ArabicLexiconWithAngular4\ArabicLexicon\ArabicLexicon.Web\app\services\stack-overflow.service.js.map
D:\Self Working\ArabicLexiconBackup\ArabicLexiconWithAngular4\ArabicLexicon\ArabicLexicon.Web\app\components\stack-overflow.component.js
D:\Self Working\ArabicLexiconBackup\ArabicLexiconWithAngular4\ArabicLexicon\ArabicLexicon.Web\app\components\stack-overflow.component.js.map
D:\Self Working\ArabicLexiconBackup\ArabicLexiconWithAngular4\ArabicLexicon\ArabicLexicon.Web\app\app.routing.js
D:\Self Working\ArabicLexiconBackup\ArabicLexiconWithAngular4\ArabicLexicon\ArabicLexicon.Web\app\app.routing.js.map
D:\Self Working\ArabicLexiconBackup\ArabicLexiconWithAngular4\ArabicLexicon\ArabicLexicon.Web\app\app.module.js
D:\Self Working\ArabicLexiconBackup\ArabicLexiconWithAngular4\ArabicLexicon\ArabicLexicon.Web\app\app.module.js.map
D:\Self Working\ArabicLexiconBackup\ArabicLexiconWithAngular4\ArabicLexicon\ArabicLexicon.Web\app\main.js
D:\Self Working\ArabicLexiconBackup\ArabicLexiconWithAngular4\ArabicLexicon\ArabicLexicon.Web\app\main.js.map
D:\Self Working\ArabicLexiconBackup\ArabicLexiconWithAngular4\ArabicLexicon\ArabicLexicon.Web\app\app.component.js
D:\Self Working\ArabicLexiconBackup\ArabicLexiconWithAngular4\ArabicLexicon\ArabicLexicon.Web\app\app.component.js.map
D:\Self Working\ArabicLexiconBackup\ArabicLexiconWithAngular4\ArabicLexicon\ArabicLexicon.Web\app\services\stack-overflow.service.js
D:\Self Working\ArabicLexiconBackup\ArabicLexiconWithAngular4\ArabicLexicon\ArabicLexicon.Web\app\services\stack-overflow.service.js.map
D:\Self Working\ArabicLexiconBackup\ArabicLexiconWithAngular4\ArabicLexicon\ArabicLexicon.Web\app\components\stack-overflow.component.js
D:\Self Working\ArabicLexiconBackup\ArabicLexiconWithAngular4\ArabicLexicon\ArabicLexicon.Web\app\components\stack-overflow.component.js.map
D:\Self Working\ArabicLexiconBackup\ArabicLexiconWithAngular4\ArabicLexicon\ArabicLexicon.Web\app\app.routing.js
D:\Self Working\ArabicLexiconBackup\ArabicLexiconWithAngular4\ArabicLexicon\ArabicLexicon.Web\app\app.routing.js.map
D:\Self Working\ArabicLexiconBackup\ArabicLexiconWithAngular4\ArabicLexicon\ArabicLexicon.Web\app\app.module.js
D:\Self Working\ArabicLexiconBackup\ArabicLexiconWithAngular4\ArabicLexicon\ArabicLexicon.Web\app\app.module.js.map
D:\Self Working\ArabicLexiconBackup\ArabicLexiconWithAngular4\ArabicLexicon\ArabicLexicon.Web\app\main.js
D:\Self Working\ArabicLexiconBackup\ArabicLexiconWithAngular4\ArabicLexicon\ArabicLexicon.Web\app\main.js.map
D:\Self Working\ArabicLexiconBackup\ArabicLexiconWithAngular4\ArabicLexicon\ArabicLexicon.Web\app\app.component.js
D:\Self Working\ArabicLexiconBackup\ArabicLexiconWithAngular4\ArabicLexicon\ArabicLexicon.Web\app\app.component.js.map
D:\Self Working\ArabicLexiconBackup\ArabicLexiconWithAngular4\ArabicLexicon\ArabicLexicon.Web\app\services\stack-overflow.service.js
D:\Self Working\ArabicLexiconBackup\ArabicLexiconWithAngular4\ArabicLexicon\ArabicLexicon.Web\app\services\stack-overflow.service.js.map
D:\Self Working\ArabicLexiconBackup\ArabicLexiconWithAngular4\ArabicLexicon\ArabicLexicon.Web\app\components\stack-overflow.component.js
D:\Self Working\ArabicLexiconBackup\ArabicLexiconWithAngular4\ArabicLexicon\ArabicLexicon.Web\app\components\stack-overflow.component.js.map
D:\Self Working\ArabicLexiconBackup\ArabicLexiconWithAngular4\ArabicLexicon\ArabicLexicon.Web\app\app.routing.js
D:\Self Working\ArabicLexiconBackup\ArabicLexiconWithAngular4\ArabicLexicon\ArabicLexicon.Web\app\app.routing.js.map
D:\Self Working\ArabicLexiconBackup\ArabicLexiconWithAngular4\ArabicLexicon\ArabicLexicon.Web\app\app.module.js
D:\Self Working\ArabicLexiconBackup\ArabicLexiconWithAngular4\ArabicLexicon\ArabicLexicon.Web\app\app.module.js.map
D:\Self Working\ArabicLexiconBackup\ArabicLexiconWithAngular4\ArabicLexicon\ArabicLexicon.Web\app\main.js
D:\Self Working\ArabicLexiconBackup\ArabicLexiconWithAngular4\ArabicLexicon\ArabicLexicon.Web\app\main.js.map
D:\Self Working\ArabicLexiconBackup\ArabicLexiconWithAngular4\ArabicLexicon\ArabicLexicon.Web\app\app.component.js
D:\Self Working\ArabicLexiconBackup\ArabicLexiconWithAngular4\ArabicLexicon\ArabicLexicon.Web\app\app.component.js.map
D:\Self Working\ArabicLexiconBackup\ArabicLexiconWithAngular4\ArabicLexicon\ArabicLexicon.Web\app\services\stack-overflow.service.js
D:\Self Working\ArabicLexiconBackup\ArabicLexiconWithAngular4\ArabicLexicon\ArabicLexicon.Web\app\services\stack-overflow.service.js.map
D:\Self Working\ArabicLexiconBackup\ArabicLexiconWithAngular4\ArabicLexicon\ArabicLexicon.Web\app\components\stack-overflow.component.js
D:\Self Working\ArabicLexiconBackup\ArabicLexiconWithAngular4\ArabicLexicon\ArabicLexicon.Web\app\components\stack-overflow.component.js.map
D:\Self Working\ArabicLexiconBackup\ArabicLexiconWithAngular4\ArabicLexicon\ArabicLexicon.Web\app\app.routing.js
D:\Self Working\ArabicLexiconBackup\ArabicLexiconWithAngular4\ArabicLexicon\ArabicLexicon.Web\app\app.routing.js.map
D:\Self Working\ArabicLexiconBackup\ArabicLexiconWithAngular4\ArabicLexicon\ArabicLexicon.Web\app\app.module.js
D:\Self Working\ArabicLexiconBackup\ArabicLexiconWithAngular4\ArabicLexicon\ArabicLexicon.Web\app\app.module.js.map
D:\Self Working\ArabicLexiconBackup\ArabicLexiconWithAngular4\ArabicLexicon\ArabicLexicon.Web\app\main.js
D:\Self Working\ArabicLexiconBackup\ArabicLexiconWithAngular4\ArabicLexicon\ArabicLexicon.Web\app\main.js.map
D:\Self Working\ArabicLexiconBackup\ArabicLexiconWithAngular4\ArabicLexicon\ArabicLexicon.Web\app\app.component.js
D:\Self Working\ArabicLexiconBackup\ArabicLexiconWithAngular4\ArabicLexicon\ArabicLexicon.Web\app\app.component.js.map
D:\Self Working\ArabicLexiconBackup\ArabicLexiconWithAngular4\ArabicLexicon\ArabicLexicon.Web\app\services\stack-overflow.service.js
D:\Self Working\ArabicLexiconBackup\ArabicLexiconWithAngular4\ArabicLexicon\ArabicLexicon.Web\app\services\stack-overflow.service.js.map
D:\Self Working\ArabicLexiconBackup\ArabicLexiconWithAngular4\ArabicLexicon\ArabicLexicon.Web\app\components\stack-overflow.component.js
D:\Self Working\ArabicLexiconBackup\ArabicLexiconWithAngular4\ArabicLexicon\ArabicLexicon.Web\app\components\stack-overflow.component.js.map
D:\Self Working\ArabicLexiconBackup\ArabicLexiconWithAngular4\ArabicLexicon\ArabicLexicon.Web\app\app.routing.js
D:\Self Working\ArabicLexiconBackup\ArabicLexiconWithAngular4\ArabicLexicon\ArabicLexicon.Web\app\app.routing.js.map
D:\Self Working\ArabicLexiconBackup\ArabicLexiconWithAngular4\ArabicLexicon\ArabicLexicon.Web\app\app.module.js
D:\Self Working\ArabicLexiconBackup\ArabicLexiconWithAngular4\ArabicLexicon\ArabicLexicon.Web\app\app.module.js.map
D:\Self Working\ArabicLexiconBackup\ArabicLexiconWithAngular4\ArabicLexicon\ArabicLexicon.Web\app\main.js
D:\Self Working\ArabicLexiconBackup\ArabicLexiconWithAngular4\ArabicLexicon\ArabicLexicon.Web\app\main.js.map
D:\Self Working\ArabicLexiconBackup\ArabicLexiconWithAngular4\ArabicLexicon\ArabicLexicon.Web\app\app.component.js
D:\Self Working\ArabicLexiconBackup\ArabicLexiconWithAngular4\ArabicLexicon\ArabicLexicon.Web\app\app.component.js.map
D:\Self Working\ArabicLexiconBackup\ArabicLexiconWithAngular4\ArabicLexicon\ArabicLexicon.Web\app\services\stack-overflow.service.js
D:\Self Working\ArabicLexiconBackup\ArabicLexiconWithAngular4\ArabicLexicon\ArabicLexicon.Web\app\services\stack-overflow.service.js.map
D:\Self Working\ArabicLexiconBackup\ArabicLexiconWithAngular4\ArabicLexicon\ArabicLexicon.Web\app\components\stack-overflow.component.js
D:\Self Working\ArabicLexiconBackup\ArabicLexiconWithAngular4\ArabicLexicon\ArabicLexicon.Web\app\components\stack-overflow.component.js.map
D:\Self Working\ArabicLexiconBackup\ArabicLexiconWithAngular4\ArabicLexicon\ArabicLexicon.Web\app\components\question-details.component.js
D:\Self Working\ArabicLexiconBackup\ArabicLexiconWithAngular4\ArabicLexicon\ArabicLexicon.Web\app\components\question-details.component.js.map
D:\Self Working\ArabicLexiconBackup\ArabicLexiconWithAngular4\ArabicLexicon\ArabicLexicon.Web\app\app.routing.js
D:\Self Working\ArabicLexiconBackup\ArabicLexiconWithAngular4\ArabicLexicon\ArabicLexicon.Web\app\app.routing.js.map
D:\Self Working\ArabicLexiconBackup\ArabicLexiconWithAngular4\ArabicLexicon\ArabicLexicon.Web\app\app.module.js
D:\Self Working\ArabicLexiconBackup\ArabicLexiconWithAngular4\ArabicLexicon\ArabicLexicon.Web\app\app.module.js.map
D:\Self Working\ArabicLexiconBackup\ArabicLexiconWithAngular4\ArabicLexicon\ArabicLexicon.Web\app\main.js
D:\Self Working\ArabicLexiconBackup\ArabicLexiconWithAngular4\ArabicLexicon\ArabicLexicon.Web\app\main.js.map
D:\Self Working\ArabicLexiconBackup\ArabicLexiconWithAngular4\ArabicLexicon\ArabicLexicon.Web\app\app.component.js
D:\Self Working\ArabicLexiconBackup\ArabicLexiconWithAngular4\ArabicLexicon\ArabicLexicon.Web\app\app.component.js.map
D:\Self Working\ArabicLexiconBackup\ArabicLexiconWithAngular4\ArabicLexicon\ArabicLexicon.Web\app\services\stack-overflow.service.js
D:\Self Working\ArabicLexiconBackup\ArabicLexiconWithAngular4\ArabicLexicon\ArabicLexicon.Web\app\services\stack-overflow.service.js.map
D:\Self Working\ArabicLexiconBackup\ArabicLexiconWithAngular4\ArabicLexicon\ArabicLexicon.Web\app\components\stack-overflow.component.js
D:\Self Working\ArabicLexiconBackup\ArabicLexiconWithAngular4\ArabicLexicon\ArabicLexicon.Web\app\components\stack-overflow.component.js.map
D:\Self Working\ArabicLexiconBackup\ArabicLexiconWithAngular4\ArabicLexicon\ArabicLexicon.Web\app\components\question-details.component.js
D:\Self Working\ArabicLexiconBackup\ArabicLexiconWithAngular4\ArabicLexicon\ArabicLexicon.Web\app\components\question-details.component.js.map
D:\Self Working\ArabicLexiconBackup\ArabicLexiconWithAngular4\ArabicLexicon\ArabicLexicon.Web\app\app.routing.js
D:\Self Working\ArabicLexiconBackup\ArabicLexiconWithAngular4\ArabicLexicon\ArabicLexicon.Web\app\app.routing.js.map
D:\Self Working\ArabicLexiconBackup\ArabicLexiconWithAngular4\ArabicLexicon\ArabicLexicon.Web\app\app.module.js
D:\Self Working\ArabicLexiconBackup\ArabicLexiconWithAngular4\ArabicLexicon\ArabicLexicon.Web\app\app.module.js.map
D:\Self Working\ArabicLexiconBackup\ArabicLexiconWithAngular4\ArabicLexicon\ArabicLexicon.Web\app\main.js
D:\Self Working\ArabicLexiconBackup\ArabicLexiconWithAngular4\ArabicLexicon\ArabicLexicon.Web\app\main.js.map
D:\Self Working\ArabicLexiconBackup\ArabicLexiconWithAngular4\ArabicLexicon\ArabicLexicon.Web\app\app.component.js
D:\Self Working\ArabicLexiconBackup\ArabicLexiconWithAngular4\ArabicLexicon\ArabicLexicon.Web\app\app.component.js.map
D:\Self Working\ArabicLexiconBackup\ArabicLexiconWithAngular4\ArabicLexicon\ArabicLexicon.Web\app\services\stack-overflow.service.js
D:\Self Working\ArabicLexiconBackup\ArabicLexiconWithAngular4\ArabicLexicon\ArabicLexicon.Web\app\services\stack-overflow.service.js.map
D:\Self Working\ArabicLexiconBackup\ArabicLexiconWithAngular4\ArabicLexicon\ArabicLexicon.Web\app\components\stack-overflow.component.js
D:\Self Working\ArabicLexiconBackup\ArabicLexiconWithAngular4\ArabicLexicon\ArabicLexicon.Web\app\components\stack-overflow.component.js.map
D:\Self Working\ArabicLexiconBackup\ArabicLexiconWithAngular4\ArabicLexicon\ArabicLexicon.Web\app\components\question-details.component.js
D:\Self Working\ArabicLexiconBackup\ArabicLexiconWithAngular4\ArabicLexicon\ArabicLexicon.Web\app\components\question-details.component.js.map
D:\Self Working\ArabicLexiconBackup\ArabicLexiconWithAngular4\ArabicLexicon\ArabicLexicon.Web\app\app.routing.js
D:\Self Working\ArabicLexiconBackup\ArabicLexiconWithAngular4\ArabicLexicon\ArabicLexicon.Web\app\app.routing.js.map
D:\Self Working\ArabicLexiconBackup\ArabicLexiconWithAngular4\ArabicLexicon\ArabicLexicon.Web\app\app.module.js
D:\Self Working\ArabicLexiconBackup\ArabicLexiconWithAngular4\ArabicLexicon\ArabicLexicon.Web\app\app.module.js.map
D:\Self Working\ArabicLexiconBackup\ArabicLexiconWithAngular4\ArabicLexicon\ArabicLexicon.Web\app\main.js
D:\Self Working\ArabicLexiconBackup\ArabicLexiconWithAngular4\ArabicLexicon\ArabicLexicon.Web\app\main.js.map
